{
    "name": "mz-pf2-addons",
    "title": "MZ Pathfinder 2e Addons",
    "description": "Collection of different addons for Pathfinder 2e",
    "author": "michalzc",
    "version": "0.1.0",
    "minimumCoreVersion": "0.7.7",
    "compatibleCoreVersion": "0.7.7",
    "dependencies": [
        {
            "name": "pf2e",
            "type": "system"
        }
    ],
    "packs": [
        {
            "name": "mzc-pf2-addons-npc-abilities",
            "label": "Pathfinder 2e NPC Abilities",
            "module": "mz-pf2-addons",
            "path": "./packs/mzc-pf2-addons-npc-abilities.db",
            "entity": "Item"
        },
        {
            "name": "mzc-pf2-addons-npcs",
            "label": "Pathfinder 2e Additional NPCs",
            "path": "./packs/mzc-pf2-addons-npcs.db",
            "entity": "Actor"
        }
    ],
    "manifest": "https://bitbucket.org/parmezan/mz-pf2-addons/downloads/module.json",
    "download": "https://bitbucket.org/parmezan/mz-pf2-addons/downloads/mz-pf2-addons.zip"
}